{
    "from" : "zero",
    "to" : "p1",
    "var" : {
        "request_body" : "request.body"
    }
},
{
    "from" : "zero",
    "to" : "p2",
    "var" : {
        "newAppointment" : "newEventToNewAppointment(var:request_body)"
    }
},
{
    "from" : "p2",
    "to" : "p3",
    "method" : "POST",
    "target" : "{doctors}/appointments",
    "body" : "var:newAppointment",
    "postCondition" : {
        "status" : 201,
        "type" : "{doctors}/appointment"
    }
},
{
    "from" : "p3",
    "to" : "p4",
    "var" : {
        "newGoogleEvent" : "newEventToNewGoogleEvent(var:request_body)"
    }
},
{
    "from" : "p4",
    "to" : "p5",
    "method" : "POST",
    "target" : "{googleCalendar}/calendars/{me}/events",
    "body" : "var:newGoogleEvent",
    "post" : {
        "status" : 201,
        "type" : "{googleCalendar}/calendars/{me}/event"
    }
},
{
    "from" : "p5",
    "to" : "p6",
    "store" : {
        "events" : "events <- var:request_body"
    }
},
{
    "from" : "p6",
    "to" : "zero",
    "response" : {
        "status" : 200,
        "body" : "events"
    }
}